[Chapter 11] Cleaning the Online Shopping data
…
Administrative_Duration
Informational_Duration
ProductRelated_Duration

33
33
33

It seems that there are 33 sessions with negative durations in the entire dataset (this is less than 0.3% of all sessions). Notice also that when there is a negative duration for one of the three duration variables, the other two are also negative.

shopping_orig |>
  filter(Administrative_Duration < 0) |>
  print()

# A tibble: 33 × 18
   Administrative Administrative_Duration Informational Informational_Duration
            <dbl>                   <dbl>         <dbl>                  <dbl>
 1              0                      -1             0                     -1
 2              0                      -1             0                     -1
 3              1                      -1             0                     -1
 4              0                      -1             0                     -1
 5              0                      -1             0                     -1
 6              0                      -1             0                     -1
 7              0                      -1             0                     -1
 8              0                      -1             0                     -1
 9              0                      -1             0                     -1
10              0                      -1             0                     -1
# ℹ 23 more rows
# ℹ 14 more variables: ProductRelated <dbl>, ProductRelated_Duration <dbl>,
#   BounceRates <dbl>, ExitRates <dbl>, PageValues <dbl>, SpecialDay <dbl>,
#   Month <chr>, OperatingSystems <dbl>, Browser <dbl>, Region <dbl>,
#   TrafficType <dbl>, VisitorType <chr>, Weekend <lgl>, Revenue <lgl>
…
