[Chapter 11] Predicting online shopping purchase intent using using logistic regression
…
# look at the object we just created
boot_coefs

# A tibble: 54,000 × 3
   boot  variable                 coefficient
   <chr> <chr>                          <dbl>
 1 1     (Intercept)                -2.01    
 2 1     administrative              0.0227  
 3 1     administrative_duration    -0.00407 
 4 1     informational               0.0147  
 5 1     informational_duration     -0.00739 
 6 1     product_related             0.000646
 7 1     product_related_duration    0.00548 
 8 1     bounce_rates                0.869   
 9 1     exit_rates                -13.5     
10 1     page_values                 0.0880  
# ℹ 53,990 more rows
…
print(coefs_std, width = Inf)

# A tibble: 53 × 4
   variable        coefficient boot_sd standardized_coefficient
   <chr>                 <dbl>   <dbl>                    <dbl>
 1 page_values          0.0816 0.00604                    13.5 
 2 exit_rates         -14.9    2.73                       -5.45
 3 traffic_type_8       0.789  0.226                       3.49
 4 month_Dec           -0.838  0.256                      -3.28
 5 month_Mar           -0.646  0.234                      -2.76
 6 month_May           -0.619  0.226                      -2.74
 7 traffic_type_10      0.398  0.198                       2.00
 8 traffic_type_3      -0.325  0.165                      -1.97
 9 month_Nov            0.412  0.224                       1.84
10 traffic_type_2       0.225  0.123                       1.83
# ℹ 43 more rows
…
# A tibble: 2 × 3
  purchase     n  prop
  <fct>    <int> <dbl>
1 1         1189 0.161
2 0         6183 0.839

Let’s evaluate the LS and logistic regression fits on the entire validation set. First, we need to compute the predictions for the validation set.

pred_val <- tibble(purchase = shopping_val_preprocessed$purchase, 
                   ls_predict = predict(ls_all, shopping_val_preprocessed),
                   lr_predict = predict(lr_all, shopping_val_preprocessed,
                                        type = "response"))
print(pred_val, width = Inf)

# A tibble: 2,456 × 3
   purchase ls_predict lr_predict
   <fct>         <dbl>      <dbl>
 1 0          -0.0287     0.00265
 2 0           0.00491    0.00540
 3 0           0.0602     0.0125 
 4 0          -0.0605     0.00221
 5 0           0.0865     0.0138 
 6 0          -0.0338     0.00383
 7 0          -0.0507     0.00286
 8 0           0.0234     0.00845
 9 0           0.0521     0.00835
10 0           0.0143     0.00739
# ℹ 2,446 more rows
…
4.2 Stability to data perturbations

To investigate the stability of each algorithm to data perturbations (specifically, bootstrap samples), we will first create 100 perturbed versions of the training dataset and store them in a tibble as a list column:

set.seed(37698)
shopping_data_perturbed <- tibble(iter = 1:100) %>%
  rowwise() %>%
  # for each row, create a bootstrap sampled version of the training data
  mutate(data_train_preprocessed_perturbed = list(sample_frac(shopping_train_preprocessed, 1, replace = TRUE))) %>%
  ungroup()

shopping_data_perturbed

# A tibble: 100 × 2
    iter data_train_preprocessed_perturbed
   <int> <list>                           
 1     1 <tibble [7,372 × 54]>            
 2     2 <tibble [7,372 × 54]>            
 3     3 <tibble [7,372 × 54]>            
 4     4 <tibble [7,372 × 54]>            
 5     5 <tibble [7,372 × 54]>            
 6     6 <tibble [7,372 × 54]>            
 7     7 <tibble [7,372 × 54]>            
 8     8 <tibble [7,372 × 54]>            
 9     9 <tibble [7,372 × 54]>            
10    10 <tibble [7,372 × 54]>            
# ℹ 90 more rows
…
  mutate(true = list(factor(shopping_val_preprocessed$purchase, 
                            levels = c(1, 0)))) |>
  # compute a validation set prediction for each perturbed LS fit
  mutate(pred = list(predict(ls, shopping_val_preprocessed))) |>
  # compute the performance metrics for each fit
  mutate(auc = roc_auc_vec(true, pred), 
         tp_rate = sens_vec(true, factor(as.numeric(pred > 0.161), levels = c(1, 0))),
         tn_rate = spec_vec(true, factor(as.numeric(pred > 0.161), levels = c(1, 0))),
         accuracy = accuracy_vec(true, factor(as.numeric(pred > 0.161), levels = c(1, 0))),
         .after = "pred") %>%
  ungroup()
# Look at the object we created
print(shopping_data_perturbed_ls, width = Inf)

# A tibble: 100 × 9
    iter data_train_preprocessed_perturbed ls     true          pred         
   <int> <list>                            <list> <list>        <list>       
 1     1 <tibble [7,372 × 54]>             <lm>   <fct [2,456]> <dbl [2,456]>
 2     2 <tibble [7,372 × 54]>             <lm>   <fct [2,456]> <dbl [2,456]>
 3     3 <tibble [7,372 × 54]>             <lm>   <fct [2,456]> <dbl [2,456]>
 4     4 <tibble [7,372 × 54]>             <lm>   <fct [2,456]> <dbl [2,456]>
 5     5 <tibble [7,372 × 54]>             <lm>   <fct [2,456]> <dbl [2,456]>
 6     6 <tibble [7,372 × 54]>             <lm>   <fct [2,456]> <dbl [2,456]>
 7     7 <tibble [7,372 × 54]>             <lm>   <fct [2,456]> <dbl [2,456]>
 8     8 <tibble [7,372 × 54]>             <lm>   <fct [2,456]> <dbl [2,456]>
 9     9 <tibble [7,372 × 54]>             <lm>   <fct [2,456]> <dbl [2,456]>
10    10 <tibble [7,372 × 54]>             <lm>   <fct [2,456]> <dbl [2,456]>
     auc tp_rate tn_rate accuracy
   <dbl>   <dbl>   <dbl>    <dbl>
 1 0.903   0.876   0.752    0.770
 2 0.900   0.876   0.756    0.774
 3 0.908   0.873   0.746    0.765
 4 0.899   0.862   0.761    0.776
 5 0.900   0.881   0.734    0.755
 6 0.901   0.862   0.751    0.768
 7 0.893   0.867   0.722    0.743
 8 0.902   0.884   0.753    0.772
 9 0.901   0.881   0.748    0.768
10 0.904   0.898   0.731    0.756
# ℹ 90 more rows
…
                            levels = c(1, 0)))) |>
  # compute a validation set prediction for each perturbed LS fit
  mutate(pred = list(predict(lr, shopping_val_preprocessed,
                             type = "response"))) |>
  # compute the performance metrics for each fit
  mutate(auc = roc_auc_vec(true, pred), 
         tp_rate = sens_vec(true, factor(as.numeric(pred > 0.161), levels = c(1, 0))),
         tn_rate = spec_vec(true, factor(as.numeric(pred > 0.161), levels = c(1, 0))),
         accuracy = accuracy_vec(true, factor(as.numeric(pred > 0.161), levels = c(1, 0))),
         .after = "pred") %>%
  ungroup()
# Look at the object we created
print(shopping_data_perturbed_lr, width = Inf)

# A tibble: 100 × 9
    iter data_train_preprocessed_perturbed lr     true          pred         
   <int> <list>                            <list> <list>        <list>       
 1     1 <tibble [7,372 × 54]>             <glm>  <fct [2,456]> <dbl [2,456]>
 2     2 <tibble [7,372 × 54]>             <glm>  <fct [2,456]> <dbl [2,456]>
 3     3 <tibble [7,372 × 54]>             <glm>  <fct [2,456]> <dbl [2,456]>
 4     4 <tibble [7,372 × 54]>             <glm>  <fct [2,456]> <dbl [2,456]>
 5     5 <tibble [7,372 × 54]>             <glm>  <fct [2,456]> <dbl [2,456]>
 6     6 <tibble [7,372 × 54]>             <glm>  <fct [2,456]> <dbl [2,456]>
 7     7 <tibble [7,372 × 54]>             <glm>  <fct [2,456]> <dbl [2,456]>
 8     8 <tibble [7,372 × 54]>             <glm>  <fct [2,456]> <dbl [2,456]>
 9     9 <tibble [7,372 × 54]>             <glm>  <fct [2,456]> <dbl [2,456]>
10    10 <tibble [7,372 × 54]>             <glm>  <fct [2,456]> <dbl [2,456]>
     auc tp_rate tn_rate accuracy
   <dbl>   <dbl>   <dbl>    <dbl>
 1 0.892   0.809   0.820    0.819
 2 0.897   0.812   0.832    0.829
 3 0.898   0.812   0.824    0.822
 4 0.891   0.796   0.830    0.825
 5 0.895   0.807   0.821    0.819
 6 0.890   0.782   0.832    0.825
 7 0.888   0.796   0.812    0.810
 8 0.895   0.809   0.823    0.821
 9 0.894   0.807   0.823    0.821
10 0.896   0.809   0.806    0.807
# ℹ 90 more rows
…
