[Chapter 12] Predicting online shopping purchase intent using CART and RF
…
set.seed(37698)
shopping_data_perturbed <- tibble(iter = 1:100) %>%
  rowwise() %>%
  # for each row, create bootstrapped samples version of the training data
  mutate(data_train_preprocessed_perturbed = list(sample_frac(shopping_train_preprocessed, 1, replace = TRUE)))
# add a version without dummy variables for the CART and RF fits
# use the same seed
set.seed(37698)
shopping_data_perturbed <- shopping_data_perturbed |>
  mutate(data_train_preprocessed_nodummy_perturbed = list(sample_frac(shopping_train_preprocessed_nodummy, 1, replace = TRUE))) |>
  ungroup()

shopping_data_perturbed

# A tibble: 100 × 3
    iter data_train_preprocessed_perturbed data_train_preprocessed_nodummy_per…¹
   <int> <list>                            <list>                               
 1     1 <tibble [7,372 × 54]>             <tibble [7,372 × 18]>                
 2     2 <tibble [7,372 × 54]>             <tibble [7,372 × 18]>                
 3     3 <tibble [7,372 × 54]>             <tibble [7,372 × 18]>                
 4     4 <tibble [7,372 × 54]>             <tibble [7,372 × 18]>                
 5     5 <tibble [7,372 × 54]>             <tibble [7,372 × 18]>                
 6     6 <tibble [7,372 × 54]>             <tibble [7,372 × 18]>                
 7     7 <tibble [7,372 × 54]>             <tibble [7,372 × 18]>                
 8     8 <tibble [7,372 × 54]>             <tibble [7,372 × 18]>                
 9     9 <tibble [7,372 × 54]>             <tibble [7,372 × 18]>                
10    10 <tibble [7,372 × 54]>             <tibble [7,372 × 18]>                
# ℹ 90 more rows
# ℹ abbreviated name: ¹​data_train_preprocessed_nodummy_perturbed
…
  transmute(iter,
            true_val = list(factor(shopping_val_preprocessed$purchase, 
                               levels = c(1, 0))),
            pred_val_lr = list(predict(lr, shopping_val_preprocessed,
                                   type = "response")),
            pred_val_cart = list(predict(cart, shopping_val_preprocessed_nodummy)[, 1]),
            pred_val_rf = list(predict(rf, shopping_val_preprocessed_nodummy)$predictions[, 1])) |>
  ungroup() |>
  # unnest the tibble
  unnest(c(iter, true_val,  
           pred_val_lr, pred_val_cart, pred_val_rf))
# Look at the object we created
print(shopping_data_perturbed_pred, width = Inf)

# A tibble: 245,600 × 5
    iter true_val pred_val_lr pred_val_cart pred_val_rf
   <int> <fct>          <dbl>         <dbl>       <dbl>
 1     1 0            0.00340        0.0460    0.0664  
 2     1 0            0.00330        0.0460    0.0167  
 3     1 0            0.00972        0.0460    0.0144  
 4     1 0            0.00193        0.0460    0.000286
 5     1 0            0.00895        0.0460    0.0182  
 6     1 0            0.00316        0.0460    0.000686
 7     1 0            0.00116        0.0460    0.0230  
 8     1 0            0.00680        0.0460    0.0826  
 9     1 0            0.00328        0.0460    0.0188  
10     1 0            0.00440        0.0460    0.00328 
# ℹ 245,590 more rows
…
                                       type = "response")),
            pred_val_cart = list(predict(cart, data_val_preprocessed_perturbed_nodummy)[, 1]),
            pred_val_rf = list(predict(rf, data_val_preprocessed_perturbed_nodummy)$predictions[, 1])) |>
  ungroup() |>
  # unnest the tibble
  unnest(c(numeric_to_cat,
           month_numeric,
           log_page,
           remove_extreme, 
           true_val,  
           pred_val_lr, pred_val_cart, pred_val_rf))
# Look at the object we created
print(shopping_jc_perturbed_pred, width = Inf)

# A tibble: 39,272 × 8
   numeric_to_cat month_numeric log_page remove_extreme true_val pred_val_lr
   <lgl>          <lgl>         <lgl>    <lgl>          <fct>          <dbl>
 1 TRUE           TRUE          TRUE     TRUE           0             0.0132
 2 TRUE           TRUE          TRUE     TRUE           0             0.0164
 3 TRUE           TRUE          TRUE     TRUE           0             0.0531
 4 TRUE           TRUE          TRUE     TRUE           0             0.0166
 5 TRUE           TRUE          TRUE     TRUE           0             0.0858
 6 TRUE           TRUE          TRUE     TRUE           0             0.0181
 7 TRUE           TRUE          TRUE     TRUE           0             0.0109
 8 TRUE           TRUE          TRUE     TRUE           0             0.0427
 9 TRUE           TRUE          TRUE     TRUE           0             0.0279
10 TRUE           TRUE          TRUE     TRUE           0             0.0228
   pred_val_cart pred_val_rf
           <dbl>       <dbl>
 1        0.0440     0.00238
 2        0.0440     0.00459
 3        0.0440     0.00868
 4        0.0440     0.00025
 5        0.0440     0.00999
 6        0.0440     0.0004 
 7        0.0440     0      
 8        0.0440     0.0239 
 9        0.0440     0.0152 
10        0.0440     0.0005 
# ℹ 39,262 more rows
…
