[Chapter 9] Predicting sale price in Ames using LAD and LS
…
Warning: There was 1 warning in `mutate()`.
ℹ In argument: `perturb_area = rbernoulli(n(), p = 0.3) *
  .perturb_gr_liv_area`.
ℹ In row 0.
Caused by warning:
! There was 1 warning in `mutate()`.
ℹ In argument: `perturb_area = rbernoulli(n(), p = 0.3) *
  .perturb_gr_liv_area`.
Caused by warning:
! `rbernoulli()` was deprecated in purrr 1.0.0.

ames_data_perturbed

# A tibble: 100 × 2
    iter data_train_perturbed 
   <int> <list>               
 1     1 <tibble [1,126 × 48]>
 2     2 <tibble [1,126 × 48]>
 3     3 <tibble [1,126 × 48]>
 4     4 <tibble [1,126 × 48]>
 5     5 <tibble [1,126 × 48]>
 6     6 <tibble [1,126 × 48]>
 7     7 <tibble [1,126 × 48]>
 8     8 <tibble [1,126 × 48]>
 9     9 <tibble [1,126 × 48]>
10    10 <tibble [1,126 × 48]>
# ℹ 90 more rows

Then we can define a tibble that has a list column containing each relevant LS and LAD model

perturbed_fit_area <- ames_data_perturbed |>
  rowwise() |>
  mutate(ls = list(lm(sale_price ~ gr_liv_area, data_train_perturbed)),
         lad = list(lad(sale_price ~ gr_liv_area, data_train_perturbed))) |>
  ungroup()
perturbed_fit_area

# A tibble: 100 × 4
    iter data_train_perturbed  ls     lad   
   <int> <list>                <list> <list>
 1     1 <tibble [1,126 × 48]> <lm>   <lad> 
 2     2 <tibble [1,126 × 48]> <lm>   <lad> 
 3     3 <tibble [1,126 × 48]> <lm>   <lad> 
 4     4 <tibble [1,126 × 48]> <lm>   <lad> 
 5     5 <tibble [1,126 × 48]> <lm>   <lad> 
 6     6 <tibble [1,126 × 48]> <lm>   <lad> 
 7     7 <tibble [1,126 × 48]> <lm>   <lad> 
 8     8 <tibble [1,126 × 48]> <lm>   <lad> 
 9     9 <tibble [1,126 × 48]> <lm>   <lad> 
10    10 <tibble [1,126 × 48]> <lm>   <lad> 
# ℹ 90 more rows

We can then generate sale price predictions for each house in the validation set using each perturbed LS and LAD fit.

perturbed_fit_area_pred <- perturbed_fit_area |>
  rowwise() |>
  transmute(iter, 
            true_val = list(ames_val_preprocessed$sale_price),
            pred_val_ls = list(predict(ls, ames_val_preprocessed)),
            pred_val_lad = list(predict(lad, ames_val_preprocessed))) |>
  ungroup()
perturbed_fit_area_pred

# A tibble: 100 × 4
    iter true_val    pred_val_ls pred_val_lad
   <int> <list>      <list>      <list>      
 1     1 <int [636]> <dbl [636]> <dbl [636]> 
 2     2 <int [636]> <dbl [636]> <dbl [636]> 
 3     3 <int [636]> <dbl [636]> <dbl [636]> 
 4     4 <int [636]> <dbl [636]> <dbl [636]> 
 5     5 <int [636]> <dbl [636]> <dbl [636]> 
 6     6 <int [636]> <dbl [636]> <dbl [636]> 
 7     7 <int [636]> <dbl [636]> <dbl [636]> 
 8     8 <int [636]> <dbl [636]> <dbl [636]> 
 9     9 <int [636]> <dbl [636]> <dbl [636]> 
10    10 <int [636]> <dbl [636]> <dbl [636]> 
# ℹ 90 more rows
And compute the rMSE, MAE and \(R^2\) for the validation set for each perturbed algorithm

perturbed_fit_area_pred_performance <- perturbed_fit_area_pred |> 
  pivot_longer(c("pred_val_ls", "pred_val_lad"), 
               names_to = "fit", 
               values_to = "pred_val") |>
  group_by(iter, fit) |>
  rowwise() |>
  mutate(rMSE = rmse_vec(true_val, pred_val),
         MAE = mae_vec(true_val, pred_val),
         MAD = median(abs(true_val - pred_val)),
         cor = cor(true_val, pred_val))
perturbed_fit_area_pred_performance

# A tibble: 200 × 8
# Rowwise:  iter, fit
    iter true_val    fit          pred_val      rMSE    MAE    MAD   cor
   <int> <list>      <chr>        <list>       <dbl>  <dbl>  <dbl> <dbl>
 1     1 <int [636]> pred_val_ls  <dbl [636]> 49394. 34353. 22617. 0.696
 2     1 <int [636]> pred_val_lad <dbl [636]> 49608. 34292. 22176. 0.696
 3     2 <int [636]> pred_val_ls  <dbl [636]> 49478. 34331. 22836. 0.696
 4     2 <int [636]> pred_val_lad <dbl [636]> 49905. 34303. 22381. 0.696
 5     3 <int [636]> pred_val_ls  <dbl [636]> 49337. 34451. 23203. 0.696
 6     3 <int [636]> pred_val_lad <dbl [636]> 49790. 34297. 22402. 0.696
 7     4 <int [636]> pred_val_ls  <dbl [636]> 49334. 34454. 23214. 0.696
 8     4 <int [636]> pred_val_lad <dbl [636]> 49679. 34280. 22041. 0.696
 9     5 <int [636]> pred_val_ls  <dbl [636]> 49393. 34610. 23702. 0.696
10     5 <int [636]> pred_val_lad <dbl [636]> 49603. 34303. 22465. 0.696
# ℹ 190 more rows
…
