[Chapter 10] Predicting sale price in Ames using LS
…
boot_coefs

# A tibble: 5,000 × 3
   boot  variable       coefficient
   <chr> <chr>                <dbl>
 1 1     (Intercept)      -954451. 
 2 1     gr_liv_area           87.5
 3 1     year_built           474. 
 4 1     overall_qual       17781. 
 5 1     bedroom_abv_gr    -13687. 
 6 2     (Intercept)     -1060102. 
 7 2     gr_liv_area           84.5
 8 2     year_built           526. 
 9 2     overall_qual       17925. 
10 2     bedroom_abv_gr    -10995. 
# ℹ 4,990 more rows
…
  select(where(is.numeric)) |>
  # compute the correlation matrix
  cor() |>
  # convert the cor matrix to a tibble and add a "variable" column that
  # contains the variable rownames
  as_tibble(rownames = "variable") |>
  # select just the sale price correlation column
  select(variable, cor_sale_price = sale_price) |>
  # remove the correlation of sale price with itself
  filter(variable != "sale_price") |>
  # arrange in descending (absolute value) order
  arrange(desc(abs(cor_sale_price))) 
cor_sale_price

# A tibble: 47 × 2
   variable        cor_sale_price
   <chr>                    <dbl>
 1 overall_qual             0.776
 2 gr_liv_area              0.775
 3 bathrooms                0.668
 4 exter_qual               0.628
 5 kitchen_qual             0.624
 6 total_bsmt_sf            0.614
 7 garage_cars              0.608
 8 garage_area              0.597
 9 tot_rms_abv_grd          0.531
10 bsmt_qual                0.528
# ℹ 37 more rows
…
Warning: There was 1 warning in `mutate()`.
ℹ In argument: `perturb_area = rbernoulli(n(), p = 0.3) *
  .perturb_gr_liv_area`.
ℹ In row 0.
Caused by warning:
! There was 1 warning in `mutate()`.
ℹ In argument: `perturb_area = rbernoulli(n(), p = 0.3) *
  .perturb_gr_liv_area`.
Caused by warning:
! `rbernoulli()` was deprecated in purrr 1.0.0.

ames_data_perturbed

# A tibble: 100 × 3
    iter data_train_perturbed  data_train_perturbed_nbhd
   <int> <list>                <list>                   
 1     1 <tibble [1,126 × 48]> <tibble [1,126 × 39]>    
 2     2 <tibble [1,126 × 48]> <tibble [1,126 × 39]>    
 3     3 <tibble [1,126 × 48]> <tibble [1,126 × 39]>    
 4     4 <tibble [1,126 × 48]> <tibble [1,126 × 39]>    
 5     5 <tibble [1,126 × 48]> <tibble [1,126 × 39]>    
 6     6 <tibble [1,126 × 48]> <tibble [1,126 × 39]>    
 7     7 <tibble [1,126 × 48]> <tibble [1,126 × 39]>    
 8     8 <tibble [1,126 × 48]> <tibble [1,126 × 39]>    
 9     9 <tibble [1,126 × 48]> <tibble [1,126 × 39]>    
10    10 <tibble [1,126 × 48]> <tibble [1,126 × 39]>    
# ℹ 90 more rows

Then we can define a tibble that has a list column containing each relevant LS fits in it:

perturbed_data_ls <- ames_data_perturbed |>
  rowwise() |>
  mutate(ls_area = list(lm(sale_price ~ gr_liv_area, data_train_perturbed)),
         ls_multi = list(lm(sale_price ~ gr_liv_area + overall_qual + 
                              year_built + bedroom_abv_gr + neighborhood, 
                            data_train_perturbed_nbhd)),
         ls_all = list(lm(sale_price ~ ., data_train_perturbed))) |>
  ungroup()
perturbed_data_ls

# A tibble: 100 × 6
    iter data_train_perturbed  data_train_perturbed_nbhd ls_area ls_multi ls_all
   <int> <list>                <list>                    <list>  <list>   <list>
 1     1 <tibble [1,126 × 48]> <tibble [1,126 × 39]>     <lm>    <lm>     <lm>  
 2     2 <tibble [1,126 × 48]> <tibble [1,126 × 39]>     <lm>    <lm>     <lm>  
 3     3 <tibble [1,126 × 48]> <tibble [1,126 × 39]>     <lm>    <lm>     <lm>  
 4     4 <tibble [1,126 × 48]> <tibble [1,126 × 39]>     <lm>    <lm>     <lm>  
 5     5 <tibble [1,126 × 48]> <tibble [1,126 × 39]>     <lm>    <lm>     <lm>  
 6     6 <tibble [1,126 × 48]> <tibble [1,126 × 39]>     <lm>    <lm>     <lm>  
 7     7 <tibble [1,126 × 48]> <tibble [1,126 × 39]>     <lm>    <lm>     <lm>  
 8     8 <tibble [1,126 × 48]> <tibble [1,126 × 39]>     <lm>    <lm>     <lm>  
 9     9 <tibble [1,126 × 48]> <tibble [1,126 × 39]>     <lm>    <lm>     <lm>  
10    10 <tibble [1,126 × 48]> <tibble [1,126 × 39]>     <lm>    <lm>     <lm>  
# ℹ 90 more rows
…
            pred_val_ridge = list(predRegularizedLs(data_train_perturbed, 
                                                    ames_val_preprocessed, 
                                                    .alpha = 0)),
            pred_val_lasso = list(predRegularizedLs(data_train_perturbed, 
                                                    ames_val_preprocessed, 
                                                    .alpha = 1))) |>
  ungroup() |>
  # add pid
  mutate(pid = list(ames_val_preprocessed$pid)) |>
  # unnest the tibble
  unnest(c(true_val, pid, pred_val_ls_area, pred_val_ls_multi, 
           pred_val_ls_all, pred_val_ridge, pred_val_lasso))
perturbed_data_pred

# A tibble: 63,600 × 8
    iter true_val pred_val_ls_area pred_val_ls_multi pred_val_ls_all
   <int>    <int>            <dbl>             <dbl>           <dbl>
 1     1   155000          169001.           128050.         221463.
 2     1   178000          176335.           196077.         193809.
 3     1   254750          252190.           272192.         251411.
 4     1   230000          263574.           240603.         249480.
 5     1   146500          179619.           129343.         148890.
 6     1   124000          126969.           119782.         101344.
 7     1   159900          139228.           135983.         174802.
 8     1   153000          179509.           175659.         189939.
 9     1   269500          318194.           285128.         269970.
10     1   195000          196475.           211514.         221381.
# ℹ 63,590 more rows
# ℹ 3 more variables: pred_val_ridge <dbl>, pred_val_lasso <dbl>, pid <int>
…
                                               .alpha = 0)),
         coefs_lasso = list(coefsRegularizedLs(data_train_perturbed_std,
                                               .alpha = 1))) |>
  # select just the coefficient columns
  select(coefs_ls_area, coefs_ls_multi, coefs_ls_all, coefs_ridge,
         coefs_lasso) |>
  # convert to longer form
  pivot_longer(everything(), names_to = "fit", values_to = "coefs", 
               names_prefix = "coefs_") |>
  # unnest the list columns
  unnest(coefs) 
# look at the object we created
perturbed_data_coefs

# A tibble: 15,900 × 3
   fit      variable            coefficient
   <chr>    <chr>                     <dbl>
 1 ls_area  (Intercept)           -1.11e-16
 2 ls_area  gr_liv_area            7.65e- 1
 3 ls_multi (Intercept)            4.83e- 2
 4 ls_multi gr_liv_area            5.30e- 1
 5 ls_multi overall_qual           4.07e- 1
 6 ls_multi year_built             1.98e- 1
 7 ls_multi bedroom_abv_gr        -1.26e- 1
 8 ls_multi neighborhoodCollgCr   -1.05e- 1
 9 ls_multi neighborhoodEdwards   -1.54e- 1
10 ls_multi neighborhoodGilbert   -3.47e- 1
# ℹ 15,890 more rows
…
Using expand_grid(), we can create a data frame where each row corresponds to a unique combination of these judgment call options:

# create the judgment call perturbation combinations
param_options <- expand_grid(max_identical_thresh = c(0.65, 0.8, 0.95),
                             n_neighborhoods = c(10, 20),
                             impute_missing_categorical = c("other", "mode"),
                             simplify_vars = c(TRUE, FALSE),
                             transform_response = c("none", "log", "sqrt"),
                             cor_feature_selection_threshold = c(0, 0.5),
                             convert_categorical = c("numeric", "simplified_dummy", "dummy"))

param_options |> print(width = Inf)

# A tibble: 432 × 7
   max_identical_thresh n_neighborhoods impute_missing_categorical simplify_vars
                  <dbl>           <dbl> <chr>                      <lgl>        
 1                 0.65              10 other                      TRUE         
 2                 0.65              10 other                      TRUE         
 3                 0.65              10 other                      TRUE         
 4                 0.65              10 other                      TRUE         
 5                 0.65              10 other                      TRUE         
 6                 0.65              10 other                      TRUE         
 7                 0.65              10 other                      TRUE         
 8                 0.65              10 other                      TRUE         
 9                 0.65              10 other                      TRUE         
10                 0.65              10 other                      TRUE         
   transform_response cor_feature_selection_threshold convert_categorical
   <chr>                                        <dbl> <chr>              
 1 none                                           0   numeric            
 2 none                                           0   simplified_dummy   
 3 none                                           0   dummy              
 4 none                                           0.5 numeric            
 5 none                                           0.5 simplified_dummy   
 6 none                                           0.5 dummy              
 7 log                                            0   numeric            
 8 log                                            0   simplified_dummy   
 9 log                                            0   dummy              
10 log                                            0.5 numeric            
# ℹ 422 more rows
…
# look at the object we just created
ames_jc_perturbed |> print(width = Inf)

# A tibble: 432 × 9
# Rowwise: 
   max_identical_thresh n_neighborhoods impute_missing_categorical simplify_vars
                  <dbl>           <dbl> <chr>                      <lgl>        
 1                 0.65              10 other                      TRUE         
 2                 0.65              10 other                      TRUE         
 3                 0.65              10 other                      TRUE         
 4                 0.65              10 other                      TRUE         
 5                 0.65              10 other                      TRUE         
 6                 0.65              10 other                      TRUE         
 7                 0.65              10 other                      TRUE         
 8                 0.65              10 other                      TRUE         
 9                 0.65              10 other                      TRUE         
10                 0.65              10 other                      TRUE         
   transform_response cor_feature_selection_threshold convert_categorical
   <chr>                                        <dbl> <chr>              
 1 none                                           0   numeric            
 2 none                                           0   simplified_dummy   
 3 none                                           0   dummy              
 4 none                                           0.5 numeric            
 5 none                                           0.5 simplified_dummy   
 6 none                                           0.5 dummy              
 7 log                                            0   numeric            
 8 log                                            0   simplified_dummy   
 9 log                                            0   dummy              
10 log                                            0.5 numeric            
   data_train_perturbed  data_val_perturbed 
   <list>                <list>             
 1 <tibble [1,126 × 41]> <tibble [636 × 42]>
 2 <tibble [1,126 × 37]> <tibble [636 × 38]>
 3 <tibble [1,126 × 41]> <tibble [636 × 42]>
 4 <tibble [1,126 × 23]> <tibble [636 × 24]>
 5 <tibble [1,126 × 21]> <tibble [636 × 22]>
 6 <tibble [1,126 × 20]> <tibble [636 × 21]>
 7 <tibble [1,126 × 41]> <tibble [636 × 42]>
 8 <tibble [1,126 × 37]> <tibble [636 × 38]>
 9 <tibble [1,126 × 41]> <tibble [636 × 42]>
10 <tibble [1,126 × 26]> <tibble [636 × 27]>
# ℹ 422 more rows
…
# look at the object we've created
perturbed_jc_pred |> print(width = Inf)

# A tibble: 274,752 × 12
   max_identical_thresh n_neighborhoods impute_missing_categorical simplify_vars
                  <dbl>           <dbl> <chr>                      <lgl>        
 1                 0.65              10 other                      TRUE         
 2                 0.65              10 other                      TRUE         
 3                 0.65              10 other                      TRUE         
 4                 0.65              10 other                      TRUE         
 5                 0.65              10 other                      TRUE         
 6                 0.65              10 other                      TRUE         
 7                 0.65              10 other                      TRUE         
 8                 0.65              10 other                      TRUE         
 9                 0.65              10 other                      TRUE         
10                 0.65              10 other                      TRUE         
   transform_response cor_feature_selection_threshold convert_categorical
   <chr>                                        <dbl> <chr>              
 1 none                                             0 numeric            
 2 none                                             0 numeric            
 3 none                                             0 numeric            
 4 none                                             0 numeric            
 5 none                                             0 numeric            
 6 none                                             0 numeric            
 7 none                                             0 numeric            
 8 none                                             0 numeric            
 9 none                                             0 numeric            
10 none                                             0 numeric            
         pid true_val pred_val_ls_all pred_val_ridge pred_val_lasso
       <int>    <dbl>           <dbl>          <dbl>          <dbl>
 1 527226040   155000         216619.        215236.        204440.
 2 916460020   178000         198508.        204218.        189593.
 3 907252060   254750         255728.        253214.        262097.
 4 534151120   230000         254840.        247966.        251214.
 5 902406070   146500         143908.        163056.        161161.
 6 907200230   124000         100053.        101820.        112767.
 7 904301100   159900         165089.        165546.        159827.
 8 534476260   153000         188388.        188390.        189123.
 9 906230010   269500         289187.        295699.        283836.
10 916460060   195000         228688.        219380.        215207.
# ℹ 274,742 more rows
…
`summarise()` has grouped output by 'fit', 'max_identical_thresh',
'n_neighborhoods', 'simplify_vars', 'convert_categorical',
'transform_response'. You can override using the `.groups` argument.

# look at the object
perturbed_jc_correlations |> print(width = Inf)

# A tibble: 648 × 8
# Groups:   fit, max_identical_thresh, n_neighborhoods, simplify_vars,
#   convert_categorical, transform_response [324]
   fit   max_identical_thresh n_neighborhoods simplify_vars convert_categorical
   <chr>                <dbl>           <dbl> <lgl>         <chr>              
 1 lasso                 0.65              10 FALSE         dummy              
 2 lasso                 0.65              10 FALSE         dummy              
 3 lasso                 0.65              10 FALSE         dummy              
 4 lasso                 0.65              10 FALSE         dummy              
 5 lasso                 0.65              10 FALSE         dummy              
 6 lasso                 0.65              10 FALSE         dummy              
 7 lasso                 0.65              10 FALSE         numeric            
 8 lasso                 0.65              10 FALSE         numeric            
 9 lasso                 0.65              10 FALSE         numeric            
10 lasso                 0.65              10 FALSE         numeric            
   transform_response cor_feature_selection_threshold correlation
   <chr>                                        <dbl>       <dbl>
 1 log                                            0         0.963
 2 log                                            0.5       0.947
 3 none                                           0         0.949
 4 none                                           0.5       0.912
 5 sqrt                                           0         0.960
 6 sqrt                                           0.5       0.936
 7 log                                            0         0.963
 8 log                                            0.5       0.950
 9 none                                           0         0.942
10 none                                           0.5       0.923
# ℹ 638 more rows
…
         coefs_ridge = list(coefsRegularizedLs(data_train_perturbed_std,
                                               .alpha = 0)),
         coefs_lasso = list(coefsRegularizedLs(data_train_perturbed_std,
                                               .alpha = 1))) |>
  # select just the coefficient columns
  select(coefs_ls_all, coefs_ridge, coefs_lasso) |>
  # convert to longer form
  pivot_longer(everything(), names_to = "fit", values_to = "coefs", 
               names_prefix = "coefs_") |>
  # unnest the list columns
  unnest(coefs) 
# look at the object we created
perturbed_jc_coefs

# A tibble: 56,880 × 3
   fit    variable        coefficient
   <chr>  <chr>                 <dbl>
 1 ls_all (Intercept)        2.15e-16
 2 ls_all overall_qual       2.01e- 1
 3 ls_all gr_liv_area        4.66e- 1
 4 ls_all bathrooms          3.96e- 2
 5 ls_all kitchen_qual       6.40e- 2
 6 ls_all total_bsmt_sf      1.32e- 1
 7 ls_all garage_cars       -8.29e- 3
 8 ls_all garage_area        7.62e- 2
 9 ls_all tot_rms_abv_grd   -1.95e- 2
10 ls_all bsmt_qual         -2.23e- 2
# ℹ 56,870 more rows
…
