[Chapter 12] Predicting sale price in Ames using CART and RF
…
1 A manual CART demonstration

In this section, we will demonstrate one example of manually compute the first CART split for a small sample of 30 training houses.

First, let’s create the sample of 30 training houses.

set.seed(3321)
ames_train_sample <- ames_train_preprocessed_cat %>%
  filter(neighborhood %in% c("NAmes", "OldTown", "CollgCr")) %>%
  select(gr_liv_area, neighborhood, sale_price) %>%
  sample_n(30)
ames_train_sample

# A tibble: 30 × 3
   gr_liv_area neighborhood sale_price
         <int> <fct>             <int>
 1        1440 NAmes            185000
 2         968 OldTown          104500
 3        1236 NAmes            134450
 4        1416 OldTown          156500
 5         952 NAmes            135750
 6         999 NAmes            178400
 7        1710 CollgCr          208500
 8        1416 OldTown          153900
 9        1873 CollgCr          235500
10        1025 CollgCr          153500
# ℹ 20 more rows
…
set.seed(467824)
# add a version with the categorical variables
# (use the same seed as above to ensure that the perturbations are the same)
ames_data_perturbed <- ames_data_perturbed |>
  mutate(data_train_perturbed_cat = list(perturbAmes(ames_train_preprocessed_cat, 
                                                     .perturb_gr_liv_area = TRUE))) |>
  ungroup()

# look at the object
ames_data_perturbed

# A tibble: 100 × 3
    iter data_train_perturbed  data_train_perturbed_cat
   <int> <list>                <list>                  
 1     1 <tibble [1,126 × 48]> <tibble [1,126 × 39]>   
 2     2 <tibble [1,126 × 48]> <tibble [1,126 × 39]>   
 3     3 <tibble [1,126 × 48]> <tibble [1,126 × 39]>   
 4     4 <tibble [1,126 × 48]> <tibble [1,126 × 39]>   
 5     5 <tibble [1,126 × 48]> <tibble [1,126 × 39]>   
 6     6 <tibble [1,126 × 48]> <tibble [1,126 × 39]>   
 7     7 <tibble [1,126 × 48]> <tibble [1,126 × 39]>   
 8     8 <tibble [1,126 × 48]> <tibble [1,126 × 39]>   
 9     9 <tibble [1,126 × 48]> <tibble [1,126 × 39]>   
10    10 <tibble [1,126 × 48]> <tibble [1,126 × 39]>   
# ℹ 90 more rows

Then we can define a tibble that has a list column containing each relevant LS fits in it:

set.seed(287394)
perturbed_data_rf <- ames_data_perturbed |>
  rowwise() |>
  mutate(ls_all = list(lm(sale_price ~ ., data_train_perturbed)),
         cart = list(rpart(sale_price ~ ., data_train_perturbed_cat)),
         rf = list(ranger(sale_price ~ ., data_train_perturbed_cat))) |>
  ungroup()
perturbed_data_rf

# A tibble: 100 × 6
    iter data_train_perturbed  data_train_perturbed_cat ls_all cart    rf      
   <int> <list>                <list>                   <list> <list>  <list>  
 1     1 <tibble [1,126 × 48]> <tibble [1,126 × 39]>    <lm>   <rpart> <ranger>
 2     2 <tibble [1,126 × 48]> <tibble [1,126 × 39]>    <lm>   <rpart> <ranger>
 3     3 <tibble [1,126 × 48]> <tibble [1,126 × 39]>    <lm>   <rpart> <ranger>
 4     4 <tibble [1,126 × 48]> <tibble [1,126 × 39]>    <lm>   <rpart> <ranger>
 5     5 <tibble [1,126 × 48]> <tibble [1,126 × 39]>    <lm>   <rpart> <ranger>
 6     6 <tibble [1,126 × 48]> <tibble [1,126 × 39]>    <lm>   <rpart> <ranger>
 7     7 <tibble [1,126 × 48]> <tibble [1,126 × 39]>    <lm>   <rpart> <ranger>
 8     8 <tibble [1,126 × 48]> <tibble [1,126 × 39]>    <lm>   <rpart> <ranger>
 9     9 <tibble [1,126 × 48]> <tibble [1,126 × 39]>    <lm>   <rpart> <ranger>
10    10 <tibble [1,126 × 48]> <tibble [1,126 × 39]>    <lm>   <rpart> <ranger>
# ℹ 90 more rows
…
  rowwise() |>
  transmute(iter, 
            true_val = list(ames_val_preprocessed_cat$sale_price),
            pred_val_ls_all = list(predict(ls_all, ames_val_preprocessed)),
            pred_val_cart = list(predict(cart, ames_val_preprocessed_cat)),
            pred_val_rf = list(predict(rf, ames_val_preprocessed_cat)$predictions)) |>
  ungroup() |>
  # add pid for filtering to a common 150 validation set houses
  mutate(pid = list(ames_val_preprocessed$pid)) |>
  # unnest the tibble
  unnest(c(true_val, pid, 
           pred_val_ls_all, pred_val_cart, pred_val_rf))
perturbed_data_pred

# A tibble: 63,600 × 6
    iter true_val pred_val_ls_all pred_val_cart pred_val_rf       pid
   <int>    <int>           <dbl>         <dbl>       <dbl>     <int>
 1     1   155000         221463.       185136.     180950. 527226040
 2     1   178000         193809.       167200.     206969. 916460020
 3     1   254750         251411.       251760.     247409. 907252060
 4     1   230000         249480.       131996.     220294. 534151120
 5     1   146500         148890.       131996.     154647. 902406070
 6     1   124000         101344.       131996.     122130. 907200230
 7     1   159900         174802.       185136.     150121. 904301100
 8     1   153000         189939.       167200.     165156. 534476260
 9     1   269500         269970.       241597.     303233. 906230010
10     1   195000         221381.       185136.     207160. 916460060
# ℹ 63,590 more rows
…
Next, we can compare the stability of each algorithm to the pre-processing judgment calls.

# create the judgment call perturbation combinations
param_options <- expand_grid(max_identical_thresh = c(0.65, 0.8, 0.95),
                             n_neighborhoods = c(10, 20),
                             impute_missing_categorical = c("other", "mode"),
                             simplify_vars = c(TRUE, FALSE),
                             transform_response = c("none", "log", "sqrt"),
                             cor_feature_selection_threshold = c(0, 0.5),
                             convert_categorical = c("numeric", "simplified_dummy", "dummy"))

param_options |> print(width = Inf)

# A tibble: 432 × 7
   max_identical_thresh n_neighborhoods impute_missing_categorical simplify_vars
                  <dbl>           <dbl> <chr>                      <lgl>        
 1                 0.65              10 other                      TRUE         
 2                 0.65              10 other                      TRUE         
 3                 0.65              10 other                      TRUE         
 4                 0.65              10 other                      TRUE         
 5                 0.65              10 other                      TRUE         
 6                 0.65              10 other                      TRUE         
 7                 0.65              10 other                      TRUE         
 8                 0.65              10 other                      TRUE         
 9                 0.65              10 other                      TRUE         
10                 0.65              10 other                      TRUE         
   transform_response cor_feature_selection_threshold convert_categorical
   <chr>                                        <dbl> <chr>              
 1 none                                           0   numeric            
 2 none                                           0   simplified_dummy   
 3 none                                           0   dummy              
 4 none                                           0.5 numeric            
 5 none                                           0.5 simplified_dummy   
 6 none                                           0.5 dummy              
 7 log                                            0   numeric            
 8 log                                            0   simplified_dummy   
 9 log                                            0   dummy              
10 log                                            0.5 numeric            
# ℹ 422 more rows
…
# look at the object we just created
ames_jc_perturbed |> print(width = Inf)

# A tibble: 432 × 9
# Rowwise: 
   max_identical_thresh n_neighborhoods impute_missing_categorical simplify_vars
                  <dbl>           <dbl> <chr>                      <lgl>        
 1                 0.65              10 other                      TRUE         
 2                 0.65              10 other                      TRUE         
 3                 0.65              10 other                      TRUE         
 4                 0.65              10 other                      TRUE         
 5                 0.65              10 other                      TRUE         
 6                 0.65              10 other                      TRUE         
 7                 0.65              10 other                      TRUE         
 8                 0.65              10 other                      TRUE         
 9                 0.65              10 other                      TRUE         
10                 0.65              10 other                      TRUE         
   transform_response cor_feature_selection_threshold convert_categorical
   <chr>                                        <dbl> <chr>              
 1 none                                           0   numeric            
 2 none                                           0   simplified_dummy   
 3 none                                           0   dummy              
 4 none                                           0.5 numeric            
 5 none                                           0.5 simplified_dummy   
 6 none                                           0.5 dummy              
 7 log                                            0   numeric            
 8 log                                            0   simplified_dummy   
 9 log                                            0   dummy              
10 log                                            0.5 numeric            
   data_train_perturbed  data_val_perturbed 
   <list>                <list>             
 1 <tibble [1,126 × 41]> <tibble [636 × 42]>
 2 <tibble [1,126 × 37]> <tibble [636 × 38]>
 3 <tibble [1,126 × 41]> <tibble [636 × 42]>
 4 <tibble [1,126 × 23]> <tibble [636 × 24]>
 5 <tibble [1,126 × 21]> <tibble [636 × 22]>
 6 <tibble [1,126 × 20]> <tibble [636 × 21]>
 7 <tibble [1,126 × 41]> <tibble [636 × 42]>
 8 <tibble [1,126 × 37]> <tibble [636 × 38]>
 9 <tibble [1,126 × 41]> <tibble [636 × 42]>
10 <tibble [1,126 × 26]> <tibble [636 × 27]>
# ℹ 422 more rows
…
# look at the object we've created
perturbed_jc_pred |> print(width = Inf)

# A tibble: 274,752 × 12
   max_identical_thresh n_neighborhoods impute_missing_categorical simplify_vars
                  <dbl>           <dbl> <chr>                      <lgl>        
 1                 0.65              10 other                      TRUE         
 2                 0.65              10 other                      TRUE         
 3                 0.65              10 other                      TRUE         
 4                 0.65              10 other                      TRUE         
 5                 0.65              10 other                      TRUE         
 6                 0.65              10 other                      TRUE         
 7                 0.65              10 other                      TRUE         
 8                 0.65              10 other                      TRUE         
 9                 0.65              10 other                      TRUE         
10                 0.65              10 other                      TRUE         
   transform_response cor_feature_selection_threshold convert_categorical
   <chr>                                        <dbl> <chr>              
 1 none                                             0 numeric            
 2 none                                             0 numeric            
 3 none                                             0 numeric            
 4 none                                             0 numeric            
 5 none                                             0 numeric            
 6 none                                             0 numeric            
 7 none                                             0 numeric            
 8 none                                             0 numeric            
 9 none                                             0 numeric            
10 none                                             0 numeric            
         pid true_val pred_val_ls_all pred_val_cart pred_val_rf
       <int>    <dbl>           <dbl>         <dbl>       <dbl>
 1 527226040   155000         216619.       180604.     180860.
 2 916460020   178000         198508.       146114.     191390.
 3 907252060   254750         255728.       255667.     255093.
 4 534151120   230000         254840.       186842.     228674.
 5 902406070   146500         143908.       146114.     164955.
 6 907200230   124000         100053.       131017.     121076.
 7 904301100   159900         165089.       180604.     151339.
 8 534476260   153000         188388.       146114.     160041.
 9 906230010   269500         289187.       229940.     286901.
10 916460060   195000         228688.       180604.     207846.
# ℹ 274,742 more rows
…
`summarise()` has grouped output by 'fit', 'max_identical_thresh',
'n_neighborhoods', 'simplify_vars', 'convert_categorical',
'transform_response'. You can override using the `.groups` argument.

# look at the object
perturbed_jc_correlations |> print(width = Inf)

# A tibble: 648 × 8
# Groups:   fit, max_identical_thresh, n_neighborhoods, simplify_vars,
#   convert_categorical, transform_response [324]
   fit   max_identical_thresh n_neighborhoods simplify_vars convert_categorical
   <chr>                <dbl>           <dbl> <lgl>         <chr>              
 1 cart                  0.65              10 FALSE         dummy              
 2 cart                  0.65              10 FALSE         dummy              
 3 cart                  0.65              10 FALSE         dummy              
 4 cart                  0.65              10 FALSE         dummy              
 5 cart                  0.65              10 FALSE         dummy              
 6 cart                  0.65              10 FALSE         dummy              
 7 cart                  0.65              10 FALSE         numeric            
 8 cart                  0.65              10 FALSE         numeric            
 9 cart                  0.65              10 FALSE         numeric            
10 cart                  0.65              10 FALSE         numeric            
   transform_response cor_feature_selection_threshold correlation
   <chr>                                        <dbl>       <dbl>
 1 log                                            0         0.830
 2 log                                            0.5       0.830
 3 none                                           0         0.842
 4 none                                           0.5       0.840
 5 sqrt                                           0         0.849
 6 sqrt                                           0.5       0.848
 7 log                                            0         0.830
 8 log                                            0.5       0.830
 9 none                                           0         0.842
10 none                                           0.5       0.840
# ℹ 638 more rows
…
