[Chapter 13] The final Ames sale price predictions
…
# look at the object we just created
print(ames_jc_perturbed, width = Inf)

# A tibble: 336 × 10
# Rowwise: 
   max_identical_thresh n_neighborhoods impute_missing_categorical simplify_vars
                  <dbl>           <dbl> <chr>                      <lgl>        
 1                 0.65              10 other                      TRUE         
 2                 0.65              10 other                      TRUE         
 3                 0.65              10 other                      TRUE         
 4                 0.65              10 other                      TRUE         
 5                 0.65              10 other                      TRUE         
 6                 0.65              10 other                      TRUE         
 7                 0.65              10 other                      TRUE         
 8                 0.65              10 other                      TRUE         
 9                 0.65              10 other                      TRUE         
10                 0.65              10 other                      TRUE         
   transform_response cor_feature_selection_threshold convert_categorical
   <chr>                                        <dbl> <chr>              
 1 none                                           0   numeric            
 2 none                                           0   simplified_dummy   
 3 none                                           0   dummy              
 4 none                                           0.5 numeric            
 5 none                                           0.5 simplified_dummy   
 6 none                                           0.5 dummy              
 7 log                                            0   numeric            
 8 log                                            0   simplified_dummy   
 9 log                                            0   dummy              
10 log                                            0.5 numeric            
   data_train_perturbed  data_val_perturbed  data_test_perturbed
   <list>                <list>              <list>             
 1 <tibble [1,126 × 41]> <tibble [636 × 42]> <tibble [635 × 42]>
 2 <tibble [1,126 × 37]> <tibble [636 × 38]> <tibble [635 × 38]>
 3 <tibble [1,126 × 41]> <tibble [636 × 42]> <tibble [635 × 42]>
 4 <tibble [1,126 × 23]> <tibble [636 × 24]> <tibble [635 × 24]>
 5 <tibble [1,126 × 21]> <tibble [636 × 22]> <tibble [635 × 22]>
 6 <tibble [1,126 × 20]> <tibble [636 × 21]> <tibble [635 × 21]>
 7 <tibble [1,126 × 41]> <tibble [636 × 42]> <tibble [635 × 42]>
 8 <tibble [1,126 × 37]> <tibble [636 × 38]> <tibble [635 × 38]>
 9 <tibble [1,126 × 41]> <tibble [636 × 42]> <tibble [635 × 42]>
10 <tibble [1,126 × 26]> <tibble [636 × 27]> <tibble [635 × 27]>
# ℹ 326 more rows
…
print(perturbed_jc_performance, width = Inf)

# A tibble: 1,680 × 13
# Rowwise: 
   max_identical_thresh n_neighborhoods impute_missing_categorical simplify_vars
                  <dbl>           <dbl> <chr>                      <lgl>        
 1                 0.65              10 other                      TRUE         
 2                 0.65              10 other                      TRUE         
 3                 0.65              10 other                      TRUE         
 4                 0.65              10 other                      TRUE         
 5                 0.65              10 other                      TRUE         
 6                 0.65              10 other                      TRUE         
 7                 0.65              10 other                      TRUE         
 8                 0.65              10 other                      TRUE         
 9                 0.65              10 other                      TRUE         
10                 0.65              10 other                      TRUE         
   transform_response cor_feature_selection_threshold convert_categorical
   <chr>                                        <dbl> <chr>              
 1 none                                             0 numeric            
 2 none                                             0 numeric            
 3 none                                             0 numeric            
 4 none                                             0 numeric            
 5 none                                             0 numeric            
 6 none                                             0 simplified_dummy   
 7 none                                             0 simplified_dummy   
 8 none                                             0 simplified_dummy   
 9 none                                             0 simplified_dummy   
10 none                                             0 simplified_dummy   
   true_val    algorithm pred_val      cor   rmse    mae
   <list>      <chr>     <list>      <dbl>  <dbl>  <dbl>
 1 <int [636]> ls        <dbl [636]> 0.941 23346. 17351.
 2 <int [636]> lad       <dbl [636]> 0.939 24270. 16424.
 3 <int [636]> rf        <dbl [636]> 0.960 19808. 14311.
 4 <int [636]> ridge     <dbl [636]> 0.939 23781. 17057.
 5 <int [636]> lasso     <dbl [636]> 0.936 24319. 17352.
 6 <int [636]> ls        <dbl [636]> 0.938 24037. 17742.
 7 <int [636]> lad       <dbl [636]> 0.935 24754. 16732.
 8 <int [636]> rf        <dbl [636]> 0.958 20339. 14512.
 9 <int [636]> ridge     <dbl [636]> 0.936 24395. 17377.
10 <int [636]> lasso     <dbl [636]> 0.932 25007. 17666.
# ℹ 1,670 more rows
…
